{
   "links":[
      {
         "rel":"first",
         "href":"https://www.hmislynk.com/inventory-api/rest/housing-units/?page=0&size=3"
      },
      {
         "rel":"self",
         "href":"https://www.hmislynk.com/inventory-api/rest/housing-units/?page=0&size=3"
      },
      {
         "rel":"next",
         "href":"https://www.hmislynk.com/inventory-api/rest/housing-units/?page=1&size=3"
      },
      {
         "rel":"last",
         "href":"https://www.hmislynk.com/inventory-api/rest/housing-units/?page=13&size=3"
      }
   ],
   "content":[
      {
         "inactive":false,
         "housingInventoryId":"7a428e4e-d682-43ef-b2c7-383340ceb84e",
         "bedsCurrent":5,
         "projectId":"test-project",
         "userId":"shubas",
         "bedsCapacity":6,
         "familyUnit":false,
         "inService":false,
         "vacant":false,
         "aliasName":"Test Name"
         "links":[

         ]
      },
      {
         "inactive":false,
         "housingInventoryId":"0144dd7c-a2df-4dec-8f57-a7afe45336c4",
         "bedsCurrent":8,
         "projectId":"test-project",
         "userId":"shubas",
         "bedsCapacity":6,
         "links":[

         ]
      },
      {
         "inactive":false,
         "housingInventoryId":"1c7f4d3a-1c47-4b72-9853-736c524f49bf",
         "links":[

         ]
      }
   ],
   "page":{
      "size":3,
      "totalElements":42,
      "totalPages":14,
      "number":0
   }
}