{
   "links":[
      {
         "rel":"first",
         "href":"https://www.hmislynk.com/inventory-api/rest/housing-units/?page=0&size=2"
      },
      {
         "rel":"self",
         "href":"https://www.hmislynk.com/inventory-api/rest/housing-units/?page=0&size=2"
      },
      {
         "rel":"next",
         "href":"https://www.hmislynk.com/inventory-api/rest/housing-units/?page=1&size=2"
      },
      {
         "rel":"last",
         "href":"https://www.hmislynk.com/inventory-api/rest/housing-units/?page=20&size=2"
      }
   ],
   "content":[
      {
         "inactive":false,
         "housingInventoryId":"7a428e4e-d682-43ef-b2c7-383340ceb84e",
         "bedsCurrent":5,
         "projectId":"test-project",
         "userId":"shubas",
         "bedsCapacity":6,
         "familyUnit":false,
         "inService":false,
         "vacant":false,
         "aliasName":"Test Name",
         "links":[

         ]
      },
      {
         "inactive":false,
         "housingInventoryId":"0144dd7c-a2df-4dec-8f57-a7afe45336c4",
         "bedsCurrent":8,
         "projectId":"test-project",
         "userId":"shubas",
         "bedsCapacity":6,
         "familyUnit":false,
         "inService":false,
         "vacant":false,
         "aliasName":"Test2 Name",
         "links":[

         ]
      }
   ],
   "page":{
      "size":2,
      "totalElements":42,
      "totalPages":21,
      "number":0
   }
}
